…
> rm("mydf")

| You nailed it! Good job!


  |                                                                            
  |=============                                                         |  18%
| From ?tbl_df, "The main advantage to using a tbl_df over a regular data frame is the printing." Let's see what is meant by this. Type cran to print our tbl_df
| to the console.

> cran
# A tibble: 225,468 x 11
       X date       time        size r_version r_arch r_os      package      version country ip_id
   <int> <chr>      <chr>      <int> <chr>     <chr>  <chr>     <chr>        <chr>   <chr>   <int>
 1     1 2014-07-08 00:54:41   80589 3.1.0     x86_64 mingw32   htmltools    0.2.4   US          1
 2     2 2014-07-08 00:59:53  321767 3.1.0     x86_64 mingw32   tseries      0.10-32 US          2
 3     3 2014-07-08 00:47:13  748063 3.1.0     x86_64 linux-gnu party        1.0-15  US          3
 4     4 2014-07-08 00:48:05  606104 3.1.0     x86_64 linux-gnu Hmisc        3.14-4  US          3
 5     5 2014-07-08 00:46:50   79825 3.0.2     x86_64 linux-gnu digest       0.6.4   CA          4
 6     6 2014-07-08 00:48:04   77681 3.1.0     x86_64 linux-gnu randomForest 4.6-7   US          3
 7     7 2014-07-08 00:48:35  393754 3.1.0     x86_64 linux-gnu plyr         1.8.1   US          3
 8     8 2014-07-08 00:47:30   28216 3.0.2     x86_64 linux-gnu whisker      0.3-2   US          5
 9     9 2014-07-08 00:54:58    5928 <NA>      <NA>   <NA>      Rcpp         0.10.4  CN          6
10    10 2014-07-08 00:15:35 2206029 3.0.2     x86_64 linux-gnu hflights     0.1     US          7
# ... with 225,458 more rows
…
  |                                                                            
  |===================                                                   |  27%
| Help files for the other functions are accessible in the same way.

...


  |                                                                            
  |====================                                                  |  28%
| As may often be the case, particularly with larger datasets, we are only interested in some of the variables. Use select(cran, ip_id, package, country) to select
| only the ip_id, package, and country variables from the cran dataset.

> select(cran, ip_id, package, country)
# A tibble: 225,468 x 3
   ip_id package      country
   <int> <chr>        <chr>  
 1     1 htmltools    US     
 2     2 tseries      US     
 3     3 party        US     
 4     3 Hmisc        US     
 5     4 digest       CA     
 6     3 randomForest US     
 7     3 plyr         US     
 8     5 whisker      US     
 9     6 Rcpp         CN     
10     7 hflights     US     
# ... with 225,458 more rows
…
> 5:20
 [1]  5  6  7  8  9 10 11 12 13 14 15 16 17 18 19 20

| Keep up the great work!


  |                                                                            
  |========================                                              |  35%
| Normally, this notation is reserved for numbers, but select() allows you to specify a sequence of columns this way, which can save a bunch of typing. Use
| select(cran, r_arch:country) to select all columns starting from r_arch and ending with country.

> select(cran, r_arch:country)
# A tibble: 225,468 x 5
   r_arch r_os      package      version country
   <chr>  <chr>     <chr>        <chr>   <chr>  
 1 x86_64 mingw32   htmltools    0.2.4   US     
 2 x86_64 mingw32   tseries      0.10-32 US     
 3 x86_64 linux-gnu party        1.0-15  US     
 4 x86_64 linux-gnu Hmisc        3.14-4  US     
 5 x86_64 linux-gnu digest       0.6.4   CA     
 6 x86_64 linux-gnu randomForest 4.6-7   US     
 7 x86_64 linux-gnu plyr         1.8.1   US     
 8 x86_64 linux-gnu whisker      0.3-2   US     
 9 <NA>   <NA>      Rcpp         0.10.4  CN     
10 x86_64 linux-gnu hflights     0.1     US     
# ... with 225,458 more rows

| That's a job well done!


  |                                                                            
  |==========================                                            |  37%
| We can also select the same columns in reverse order. Give it a try.

> skip()

| Entering the following correct answer for you...

> select(cran, country:r_arch)
# A tibble: 225,468 x 5
   country version package      r_os      r_arch
   <chr>   <chr>   <chr>        <chr>     <chr> 
 1 US      0.2.4   htmltools    mingw32   x86_64
 2 US      0.10-32 tseries      mingw32   x86_64
 3 US      1.0-15  party        linux-gnu x86_64
 4 US      3.14-4  Hmisc        linux-gnu x86_64
 5 CA      0.6.4   digest       linux-gnu x86_64
 6 US      4.6-7   randomForest linux-gnu x86_64
 7 US      1.8.1   plyr         linux-gnu x86_64
 8 US      0.3-2   whisker      linux-gnu x86_64
 9 CN      0.10.4  Rcpp         <NA>      <NA>  
10 US      0.1     hflights     linux-gnu x86_64
# ... with 225,458 more rows

| Keep working like that and you'll get there!


  |                                                                            
  |===========================                                           |  38%
| Print the entire dataset again, just to remind yourself of what it looks like. You can do this at anytime during the lesson.

> print(cran)
# A tibble: 225,468 x 11
       X date       time        size r_version r_arch r_os      package      version country ip_id
   <int> <chr>      <chr>      <int> <chr>     <chr>  <chr>     <chr>        <chr>   <chr>   <int>
 1     1 2014-07-08 00:54:41   80589 3.1.0     x86_64 mingw32   htmltools    0.2.4   US          1
 2     2 2014-07-08 00:59:53  321767 3.1.0     x86_64 mingw32   tseries      0.10-32 US          2
 3     3 2014-07-08 00:47:13  748063 3.1.0     x86_64 linux-gnu party        1.0-15  US          3
 4     4 2014-07-08 00:48:05  606104 3.1.0     x86_64 linux-gnu Hmisc        3.14-4  US          3
 5     5 2014-07-08 00:46:50   79825 3.0.2     x86_64 linux-gnu digest       0.6.4   CA          4
 6     6 2014-07-08 00:48:04   77681 3.1.0     x86_64 linux-gnu randomForest 4.6-7   US          3
 7     7 2014-07-08 00:48:35  393754 3.1.0     x86_64 linux-gnu plyr         1.8.1   US          3
 8     8 2014-07-08 00:47:30   28216 3.0.2     x86_64 linux-gnu whisker      0.3-2   US          5
 9     9 2014-07-08 00:54:58    5928 <NA>      <NA>   <NA>      Rcpp         0.10.4  CN          6
10    10 2014-07-08 00:15:35 2206029 3.0.2     x86_64 linux-gnu hflights     0.1     US          7
# ... with 225,458 more rows
…
| Print cran to the console to remind yourself what it looks like.

> print("cran")
[1] "cran"

| Try again. Getting it right on the first try is boring anyway! Or, type info() for more options.

| Print cran to the console to remind yourself what it looks like.

> skip()

| Entering the following correct answer for you...

> cran
# A tibble: 225,468 x 11
       X date       time        size r_version r_arch r_os      package      version country ip_id
   <int> <chr>      <chr>      <int> <chr>     <chr>  <chr>     <chr>        <chr>   <chr>   <int>
 1     1 2014-07-08 00:54:41   80589 3.1.0     x86_64 mingw32   htmltools    0.2.4   US          1
 2     2 2014-07-08 00:59:53  321767 3.1.0     x86_64 mingw32   tseries      0.10-32 US          2
 3     3 2014-07-08 00:47:13  748063 3.1.0     x86_64 linux-gnu party        1.0-15  US          3
 4     4 2014-07-08 00:48:05  606104 3.1.0     x86_64 linux-gnu Hmisc        3.14-4  US          3
 5     5 2014-07-08 00:46:50   79825 3.0.2     x86_64 linux-gnu digest       0.6.4   CA          4
 6     6 2014-07-08 00:48:04   77681 3.1.0     x86_64 linux-gnu randomForest 4.6-7   US          3
 7     7 2014-07-08 00:48:35  393754 3.1.0     x86_64 linux-gnu plyr         1.8.1   US          3
 8     8 2014-07-08 00:47:30   28216 3.0.2     x86_64 linux-gnu whisker      0.3-2   US          5
 9     9 2014-07-08 00:54:58    5928 <NA>      <NA>   <NA>      Rcpp         0.10.4  CN          6
10    10 2014-07-08 00:15:35 2206029 3.0.2     x86_64 linux-gnu hflights     0.1     US          7
# ... with 225,458 more rows

| You nailed it! Good job!


  |                                                                            
  |============================                                          |  40%
| Instead of specifying the columns we want to keep, we can also specify the columns we want to throw away. To see how this works, do select(cran, -time) to omit
| the time column.

> select(cran, -time)
# A tibble: 225,468 x 10
       X date          size r_version r_arch r_os      package      version country ip_id
   <int> <chr>        <int> <chr>     <chr>  <chr>     <chr>        <chr>   <chr>   <int>
 1     1 2014-07-08   80589 3.1.0     x86_64 mingw32   htmltools    0.2.4   US          1
 2     2 2014-07-08  321767 3.1.0     x86_64 mingw32   tseries      0.10-32 US          2
 3     3 2014-07-08  748063 3.1.0     x86_64 linux-gnu party        1.0-15  US          3
 4     4 2014-07-08  606104 3.1.0     x86_64 linux-gnu Hmisc        3.14-4  US          3
 5     5 2014-07-08   79825 3.0.2     x86_64 linux-gnu digest       0.6.4   CA          4
 6     6 2014-07-08   77681 3.1.0     x86_64 linux-gnu randomForest 4.6-7   US          3
 7     7 2014-07-08  393754 3.1.0     x86_64 linux-gnu plyr         1.8.1   US          3
 8     8 2014-07-08   28216 3.0.2     x86_64 linux-gnu whisker      0.3-2   US          5
 9     9 2014-07-08    5928 <NA>      <NA>   <NA>      Rcpp         0.10.4  CN          6
10    10 2014-07-08 2206029 3.0.2     x86_64 linux-gnu hflights     0.1     US          7
# ... with 225,458 more rows
…
  |                                                                            
  |================================                                      |  45%
| Use this knowledge to omit all columns X:size using select().

> select()
Error in select_(.data, .dots = compat_as_lazy_dots(...)) : 
  argument ".data" is missing, with no default
> skip()

| Entering the following correct answer for you...

> select(cran, -(X:size))
# A tibble: 225,468 x 7
   r_version r_arch r_os      package      version country ip_id
   <chr>     <chr>  <chr>     <chr>        <chr>   <chr>   <int>
 1 3.1.0     x86_64 mingw32   htmltools    0.2.4   US          1
 2 3.1.0     x86_64 mingw32   tseries      0.10-32 US          2
 3 3.1.0     x86_64 linux-gnu party        1.0-15  US          3
 4 3.1.0     x86_64 linux-gnu Hmisc        3.14-4  US          3
 5 3.0.2     x86_64 linux-gnu digest       0.6.4   CA          4
 6 3.1.0     x86_64 linux-gnu randomForest 4.6-7   US          3
 7 3.1.0     x86_64 linux-gnu plyr         1.8.1   US          3
 8 3.0.2     x86_64 linux-gnu whisker      0.3-2   US          5
 9 <NA>      <NA>   <NA>      Rcpp         0.10.4  CN          6
10 3.0.2     x86_64 linux-gnu hflights     0.1     US          7
# ... with 225,458 more rows
…
  |                                                                            
  |=================================                                     |  47%
| Now that you know how to select a subset of columns using select(), a natural next question is "How do I select a subset of rows?" That's where the filter()
| function comes in.

...


  |                                                                            
  |==================================                                    |  48%
| Use filter(cran, package == "swirl") to select all rows for which the package variable is equal to "swirl". Be sure to use two equals signs side-by-side!

> filter(cran, package == "swirl")
# A tibble: 820 x 11
       X date       time       size r_version r_arch r_os         package version country ip_id
   <int> <chr>      <chr>     <int> <chr>     <chr>  <chr>        <chr>   <chr>   <chr>   <int>
 1    27 2014-07-08 00:17:16 105350 3.0.2     x86_64 mingw32      swirl   2.2.9   US         20
 2   156 2014-07-08 00:22:53  41261 3.1.0     x86_64 linux-gnu    swirl   2.2.9   US         66
 3   358 2014-07-08 00:13:42 105335 2.15.2    x86_64 mingw32      swirl   2.2.9   CA        115
 4   593 2014-07-08 00:59:45 105465 3.1.0     x86_64 darwin13.1.0 swirl   2.2.9   MX        162
 5   831 2014-07-08 00:55:27 105335 3.0.3     x86_64 mingw32      swirl   2.2.9   US         57
 6   997 2014-07-08 00:33:06  41261 3.1.0     x86_64 mingw32      swirl   2.2.9   US         70
 7  1023 2014-07-08 00:35:36 106393 3.1.0     x86_64 mingw32      swirl   2.2.9   BR        248
 8  1144 2014-07-08 00:00:39 106534 3.0.2     x86_64 linux-gnu    swirl   2.2.9   US        261
 9  1402 2014-07-08 00:41:41  41261 3.1.0     i386   mingw32      swirl   2.2.9   US        234
10  1424 2014-07-08 00:44:49 106393 3.1.0     x86_64 linux-gnu    swirl   2.2.9   US        301
# ... with 810 more rows
…
...


  |                                                                            
  |=====================================                                 |  53%
| You can specify as many conditions as you want, separated by commas. For example filter(cran, r_version == "3.1.1", country == "US") will return all rows of cran
| corresponding to downloads from users in the US running R version 3.1.1. Try it out.

> filter(cran, r_version == "3.1.1", country == "US")
# A tibble: 1,588 x 11
       X date       time        size r_version r_arch r_os         package      version country ip_id
   <int> <chr>      <chr>      <int> <chr>     <chr>  <chr>        <chr>        <chr>   <chr>   <int>
 1  2216 2014-07-08 00:48:58  385112 3.1.1     x86_64 darwin13.1.0 colorspace   1.2-4   US        191
 2 17332 2014-07-08 03:39:57  197459 3.1.1     x86_64 darwin13.1.0 httr         0.3     US       1704
 3 17465 2014-07-08 03:25:38   23259 3.1.1     x86_64 darwin13.1.0 snow         0.3-13  US         62
 4 18844 2014-07-08 03:59:17  190594 3.1.1     x86_64 darwin13.1.0 maxLik       1.2-0   US       1533
 5 30182 2014-07-08 04:13:15   77683 3.1.1     i386   mingw32      randomForest 4.6-7   US        646
 6 30193 2014-07-08 04:06:26 2351969 3.1.1     i386   mingw32      ggplot2      1.0.0   US          8
 7 30195 2014-07-08 04:07:09  299080 3.1.1     i386   mingw32      fExtremes    3010.81 US       2010
 8 30217 2014-07-08 04:32:04  568036 3.1.1     i386   mingw32      rJava        0.9-6   US         98
 9 30245 2014-07-08 04:10:41  526858 3.1.1     i386   mingw32      LPCM         0.44-8  US          8
10 30354 2014-07-08 04:32:51 1763717 3.1.1     i386   mingw32      mgcv         1.8-1   US       2122
# ... with 1,578 more rows
…
> filter(cran, r_version == "3.1.1", country == "india")
# A tibble: 0 x 11
# ... with 11 variables: X <int>, date <chr>, time <chr>, size <int>, r_version <chr>, r_arch <chr>, r_os <chr>, package <chr>, version <chr>, country <chr>,
#   ip_id <int>

| Give it another try. Or, type info() for more options.

| filter(cran, r_version <= "3.0.2", country == "IN") will return all rows for which r_version is less than or equal to "3.0.2" and country is equal to "IN".

> filter(cran, r_version == "3.1.1", country == "IN")
# A tibble: 1,461 x 11
       X date       time        size r_version r_arch r_os    package  version country ip_id
   <int> <chr>      <chr>      <int> <chr>     <chr>  <chr>   <chr>    <chr>   <chr>   <int>
 1 30174 2014-07-08 04:15:55 2642631 3.1.1     i386   mingw32 Ecdat    0.2-6   IN       1934
 2 30239 2014-07-08 04:06:49  137185 3.1.1     i386   mingw32 digest   0.6.4   IN       2233
 3 30240 2014-07-08 04:06:49  106613 3.1.1     i386   mingw32 swirl    2.2.9   IN       2233
 4 30244 2014-07-08 04:16:19 1493814 3.1.1     i386   mingw32 heplots  1.0-12  IN       1934
 5 30626 2014-07-08 04:55:27  329159 3.1.1     i386   mingw32 httr     0.3     IN       1942
 6 30645 2014-07-08 04:15:59  301123 3.1.1     i386   mingw32 Matching 4.8-3.4 IN       1934
 7 30648 2014-07-08 04:15:29   17267 3.1.1     i386   mingw32 rbounds  2.0     IN       1934
 8 30690 2014-07-08 04:14:08  546123 3.1.1     i386   mingw32 Rmpfr    0.5-5   IN       1934
 9 30691 2014-07-08 04:14:19  321094 3.1.1     i386   mingw32 lavaan   0.5-16  IN       1934
10 30720 2014-07-08 04:18:58   49955 3.1.1     i386   mingw32 fts      0.9.9   IN       1934
# ... with 1,451 more rows

| That's not exactly what I'm looking for. Try again. Or, type info() for more options.

| filter(cran, r_version <= "3.0.2", country == "IN") will return all rows for which r_version is less than or equal to "3.0.2" and country is equal to "IN".

>  filter(cran, r_version <= "3.0.2", country == "IN") 
# A tibble: 4,139 x 11
       X date       time         size r_version r_arch r_os      package       version   country ip_id
   <int> <chr>      <chr>       <int> <chr>     <chr>  <chr>     <chr>         <chr>     <chr>   <int>
 1   348 2014-07-08 00:44:04 10218907 3.0.0     x86_64 mingw32   BH            1.54.0-2  IN        112
 2  9990 2014-07-08 02:11:32   397497 3.0.2     x86_64 linux-gnu equateIRT     1.1       IN       1054
 3  9991 2014-07-08 02:11:32   119199 3.0.2     x86_64 linux-gnu ggdendro      0.1-14    IN       1054
 4  9992 2014-07-08 02:11:33    81779 3.0.2     x86_64 linux-gnu dfcrm         0.2-2     IN       1054
 5 10022 2014-07-08 02:19:45  1557078 2.15.0    x86_64 mingw32   RcppArmadillo 0.4.320.0 IN       1060
 6 10023 2014-07-08 02:19:46  1184285 2.15.1    i686   linux-gnu forecast      5.4       IN       1060
 7 10189 2014-07-08 02:38:06   908854 3.0.2     x86_64 linux-gnu editrules     2.7.2     IN       1054
 8 10199 2014-07-08 02:38:28   178436 3.0.2     x86_64 linux-gnu energy        1.6.1     IN       1054
 9 10200 2014-07-08 02:38:29    51811 3.0.2     x86_64 linux-gnu ENmisc        1.2-7     IN       1054
10 10201 2014-07-08 02:38:29    65245 3.0.2     x86_64 linux-gnu entropy       1.2.0     IN       1054
# ... with 4,129 more rows

| Your dedication is inspiring!


  |                                                                            
  |=========================================                             |  58%
| Our last two calls to filter() requested all rows for which some condition AND another condition were TRUE. We can also request rows for which EITHER one
| condition OR another condition are TRUE. For example, filter(cran, country == "US" | country == "IN") will gives us all rows for which the country variable equals
| either "US" or "IN". Give it a go.

> filter(cran, country == "US" | country == "IN")
# A tibble: 95,283 x 11
       X date       time        size r_version r_arch r_os      package      version country ip_id
   <int> <chr>      <chr>      <int> <chr>     <chr>  <chr>     <chr>        <chr>   <chr>   <int>
 1     1 2014-07-08 00:54:41   80589 3.1.0     x86_64 mingw32   htmltools    0.2.4   US          1
 2     2 2014-07-08 00:59:53  321767 3.1.0     x86_64 mingw32   tseries      0.10-32 US          2
 3     3 2014-07-08 00:47:13  748063 3.1.0     x86_64 linux-gnu party        1.0-15  US          3
 4     4 2014-07-08 00:48:05  606104 3.1.0     x86_64 linux-gnu Hmisc        3.14-4  US          3
 5     6 2014-07-08 00:48:04   77681 3.1.0     x86_64 linux-gnu randomForest 4.6-7   US          3
 6     7 2014-07-08 00:48:35  393754 3.1.0     x86_64 linux-gnu plyr         1.8.1   US          3
 7     8 2014-07-08 00:47:30   28216 3.0.2     x86_64 linux-gnu whisker      0.3-2   US          5
 8    10 2014-07-08 00:15:35 2206029 3.0.2     x86_64 linux-gnu hflights     0.1     US          7
 9    11 2014-07-08 00:15:25  526858 3.0.2     x86_64 linux-gnu LPCM         0.44-8  US          8
10    12 2014-07-08 00:14:45 2351969 2.14.1    x86_64 linux-gnu ggplot2      1.0.0   US          8
# ... with 95,273 more rows
…
